{
  "users": [
    {
      "id": 103,
      "name": "Alice",
      "age": 24,
      "sex": "female",
      "photo": "models/female/f-pexels-photo-247124.jpeg"
    },
    {
      "id": 104,
      "name": "Beth",
      "age": 24,
      "sex": "female",
      "photo": "models/female/girl-black-dress-portrait-hair-157606.jpeg"
    },
    {
      "id": 105,
      "name": "Catherine",
      "age": 24,
      "sex": "female",
      "photo": "models/female/model-fashion-girl-female-39678.jpeg"
    },
    {
      "id": 134,
      "name": "Diana",
      "age": 24,
      "sex": "female",
      "photo": "models/female/model-modelling-attractive-fashion-157948.jpeg"
    },
    {
      "id": 106,
      "name": "Elize",
      "age": 24,
      "sex": "female",
      "photo": "models/female/pexels-photo-206525.jpeg"
    },
    {
      "id": 107,
      "name": "Fiona",
      "age": 24,
      "sex": "female",
      "photo": "models/female/pexels-photo-206558.jpeg"
    },
    {
      "id": 108,
      "name": "Gertrude",
      "age": 24,
      "sex": "female",
      "photo": "models/female/pexels-photo-206570.jpeg"
    },
    {
      "id": 109,
      "name": "Henrika",
      "age": 24,
      "sex": "female",
      "photo": "models/female/pexels-photo-219604.jpeg"
    },
    {
      "id": 110,
      "name": "Izabelle",
      "age": 24,
      "sex": "female",
      "photo": "models/female/pexels-photo-235497.jpeg"
    },
    {
      "id": 111,
      "name": "Joanne",
      "age": 24,
      "sex": "female",
      "photo": "models/female/pexels-photo-235537.jpeg"
    },
    {
      "id": 112,
      "name": "Kate",
      "age": 24,
      "sex": "female",
      "photo": "models/female/pexels-photo-245931.jpeg"
    },
    {
      "id": 113,
      "name": "Lizz",
      "age": 24,
      "sex": "female",
      "photo": "models/female/pexels-photo-247294.jpeg"
    },
    {
      "id": 114,
      "name": "Martha",
      "age": 24,
      "sex": "female",
      "photo": "models/female/pexels-photo-255282.jpeg"
    },
    {
      "id": 115,
      "name": "Natalie",
      "age": 24,
      "sex": "female",
      "photo": "models/female/pexels-photo-428034.jpeg"
    },
    {
      "id": 116,
      "name": "Olga",
      "age": 24,
      "sex": "female",
      "photo": "models/female/woman-person-flowers-wreaths.jpg"
    },
    {
      "id": 202,
      "name": "Alex",
      "age": 25,
      "sex": "male",
      "photo": "models/male/pexels-photo-172184.jpeg"
    },
    {
      "id": 203,
      "name": "Bob",
      "age": 27,
      "sex": "male",
      "photo": "models/male/pexels-photo-172213.jpeg"
    },
    {
      "id": 204,
      "name": "C.",
      "age": 24,
      "sex": "male",
      "photo": "models/male/pexels-photo-193355.jpeg"
    },
    {
      "id": 205,
      "name": "Dylan",
      "age": 26,
      "sex": "male",
      "photo": "models/male/pexels-photo-247903.jpeg"
    },
    {
      "id": 206,
      "name": "Eric",
      "age": 32,
      "sex": "male",
      "photo": "models/male/pexels-photo-356254.jpeg"
    },
    {
      "id": 207,
      "name": "Frank",
      "age": 25,
      "sex": "male",
      "photo": "models/male/pexels-photo-412840.jpeg"
    },
    {
      "id": 208,
      "name": "Greg",
      "age": 26,
      "sex": "male",
      "photo": "models/male/pexels-photo-428340.jpeg"
    },
    {
      "id": 209,
      "name": "Henry",
      "age": 24,
      "sex": "male",
      "photo": "models/male/pexels-photo.jpg"
    },
    {
      "id": 210,
      "name": "John",
      "age": 22,
      "sex": "male",
      "photo": "models/male/portrait-black-and-white-lofty-tone-european-157759.jpeg"
    }
  ],
  "likes":{
    
  }
}